{
  "_links": {
    "self": {
      "href": "https://acc.api.data.amsterdam.nl/signals/v1/private/users/?page=1&page_size=30&is_active=true"
    },
    "next": {
      "href": "https://acc.api.data.amsterdam.nl/signals/v1/private/users/?is_active=true&page=2&page_size=30"
    },
    "previous": {
      "href": null
    }
  },
  "count": 84,
  "results": [
    {
      "_links": {
        "self": {
          "href": "https://acc.api.data.amsterdam.nl/signals/v1/private/users/137"
        }
      },
      "_display": "a.aramake@amsterdam.nl",
      "id": 137,
      "username": "a.aramake@amsterdam.nl",
      "is_active": true,
      "roles": [
        "Regievoerder"
      ],
      "profile": {
        "note": "test test test",
        "departments": [
          "Actie Service Centrum"
        ],
        "created_at": "2019-12-23T14:08:36.923020+01:00",
        "updated_at": "2020-02-27T09:48:50.429929+01:00"
      }
    },
    {
      "_links": {
        "self": {
          "href": "https://acc.api.data.amsterdam.nl/signals/v1/private/users/145"
        }
      },
      "_display": "a.boersma@amsterdam.nl",
      "id": 145,
      "username": "a.boersma@amsterdam.nl",
      "is_active": true,
      "roles": [
        "Coördinator"
      ],
      "profile": {
        "note": "Annemarieke Boersma werkt voor Datapunt Service Delivery, zij heeft een account gekregen om te kijken of de netwerk verbinding ADW <-> meldingen.amsterdam.nl beter kan.",
        "departments": [
          "Actie Service Centrum",
          "Afval en Grondstoffen",
          "CCA",
          "FB",
          "GGD",
          "Omgevingsdienst",
          "Openbare Orde & Veiligheid",
          "Politie",
          "Port of Amsterdam",
          "Stadsloket",
          "Stadswerken",
          "THOR",
          "V&OR",
          "V&OR - VIS",
          "V&OR OVL",
          "V&OR VRI",
          "VTH",
          "Waternet",
          "Wonen"
        ],
        "created_at": "2020-02-26T08:45:54.156374+01:00",
        "updated_at": "2020-02-26T08:45:54.156405+01:00"
      }
    },
    {
      "_links": {
        "self": {
          "href": "https://acc.api.data.amsterdam.nl/signals/v1/private/users/4"
        }
      },
      "_display": "a.tudorache@amsterdam.nl",
      "id": 4,
      "username": "a.tudorache@amsterdam.nl",
      "is_active": true,
      "roles": [],
      "profile": {
        "note": "a",
        "departments": [
          "Actie Service Centrum",
          "Afval en Grondstoffen",
          "CCA",
          "FB",
          "GGD",
          "Omgevingsdienst",
          "Openbare Orde & Veiligheid",
          "Politie",
          "Port of Amsterdam",
          "Stadsloket",
          "Stadswerken",
          "THOR",
          "V&OR",
          "V&OR - VIS",
          "V&OR OVL",
          "V&OR VRI",
          "VTH",
          "Waternet",
          "Wonen"
        ],
        "created_at": "2019-10-24T10:25:48.854049+02:00",
        "updated_at": "2020-03-10T11:21:28.179815+01:00"
      }
    },
    {
      "_links": {
        "self": {
          "href": "https://acc.api.data.amsterdam.nl/signals/v1/private/users/33"
        }
      },
      "_display": "acceptance@sigmax.nl",
      "id": 33,
      "username": "acceptance@sigmax.nl",
      "is_active": true,
      "roles": [],
      "profile": {
        "note": "",
        "departments": [],
        "created_at": "2019-10-24T10:25:48.866998+02:00",
        "updated_at": "2020-03-10T16:08:30.608075+01:00"
      }
    },
    {
      "_links": {
        "self": {
          "href": "https://acc.api.data.amsterdam.nl/signals/v1/private/users/38"
        }
      },
      "_display": "acceptatie@sigmax.nl",
      "id": 38,
      "username": "acceptatie@sigmax.nl",
      "is_active": true,
      "roles": [],
      "profile": {
        "note": "",
        "departments": [],
        "created_at": "2019-10-24T10:25:48.864596+02:00",
        "updated_at": "2020-03-10T16:08:21.936171+01:00"
      }
    },
    {
      "_links": {
        "self": {
          "href": "https://acc.api.data.amsterdam.nl/signals/v1/private/users/61"
        }
      },
      "_display": "aicha.ennali@amsterdam.nl",
      "id": 61,
      "username": "aicha.ennali@amsterdam.nl",
      "is_active": true,
      "roles": [
        "Behandelaar"
      ],
      "profile": {
        "note": "111",
        "departments": [],
        "created_at": "2019-10-24T10:25:48.879224+02:00",
        "updated_at": "2020-02-18T09:22:38.614547+01:00"
      }
    },
    {
      "_links": {
        "self": {
          "href": "https://acc.api.data.amsterdam.nl/signals/v1/private/users/34"
        }
      },
      "_display": "ali.kaya@amsterdam.nl",
      "id": 34,
      "username": "ali.kaya@amsterdam.nl",
      "is_active": true,
      "roles": [
        "Monitor"
      ],
      "profile": {
        "note": null,
        "departments": [],
        "created_at": "2019-10-24T10:25:48.856030+02:00",
        "updated_at": "2019-10-24T10:25:48.856062+02:00"
      }
    },
    {
      "_links": {
        "self": {
          "href": "https://acc.api.data.amsterdam.nl/signals/v1/private/users/147"
        }
      },
      "_display": "arjandata@desoftwaretesters.nl",
      "id": 147,
      "username": "arjandata@desoftwaretesters.nl",
      "is_active": true,
      "roles": [
        "Regievoerder+"
      ],
      "profile": {
        "note": "Arjan is de nieuwe software tester die het SIA team komt versterken.",
        "departments": [
          "Actie Service Centrum",
          "Afval en Grondstoffen",
          "CCA",
          "FB",
          "GGD",
          "Omgevingsdienst",
          "Openbare Orde & Veiligheid",
          "Politie",
          "Port of Amsterdam",
          "Stadsloket",
          "Stadswerken",
          "THOR",
          "V&OR",
          "V&OR - VIS",
          "V&OR OVL",
          "V&OR VRI",
          "VTH",
          "Waternet",
          "Wonen"
        ],
        "created_at": "2020-03-03T08:43:46.717315+01:00",
        "updated_at": "2020-03-03T08:43:46.717350+01:00"
      }
    },
    {
      "_links": {
        "self": {
          "href": "https://acc.api.data.amsterdam.nl/signals/v1/private/users/44"
        }
      },
      "_display": "arvid.smits@amsterdam.nl",
      "id": 44,
      "username": "arvid.smits@amsterdam.nl",
      "is_active": true,
      "roles": [
        "Regievoerder"
      ],
      "profile": {
        "note": "test1",
        "departments": [],
        "created_at": "2019-10-24T10:25:48.873260+02:00",
        "updated_at": "2020-03-12T09:25:20.907389+01:00"
      }
    },
    {
      "_links": {
        "self": {
          "href": "https://acc.api.data.amsterdam.nl/signals/v1/private/users/36"
        }
      },
      "_display": "b.monne@amsterdam.nl",
      "id": 36,
      "username": "b.monne@amsterdam.nl",
      "is_active": true,
      "roles": [
        "Monitor"
      ],
      "profile": {
        "note": null,
        "departments": [],
        "created_at": "2019-10-24T10:25:48.859248+02:00",
        "updated_at": "2019-10-24T10:25:48.859277+02:00"
      }
    },
    {
      "_links": {
        "self": {
          "href": "https://acc.api.data.amsterdam.nl/signals/v1/private/users/105"
        }
      },
      "_display": "c.a.lanenga@gmail.com",
      "id": 105,
      "username": "c.a.lanenga@gmail.com",
      "is_active": true,
      "roles": [],
      "profile": {
        "note": "Test",
        "departments": [
          "Actie Service Centrum"
        ],
        "created_at": "2020-03-12T13:34:34.927711+01:00",
        "updated_at": "2020-03-12T13:34:58.804528+01:00"
      }
    },
    {
      "_links": {
        "self": {
          "href": "https://acc.api.data.amsterdam.nl/signals/v1/private/users/26"
        }
      },
      "_display": "c.bouman@amsterdam.nl",
      "id": 26,
      "username": "c.bouman@amsterdam.nl",
      "is_active": true,
      "roles": [
        "Behandelaar",
        "Coördinator"
      ],
      "profile": {
        "note": null,
        "departments": [],
        "created_at": "2019-10-24T10:25:48.875509+02:00",
        "updated_at": "2019-10-24T10:25:48.875523+02:00"
      }
    },
    {
      "_links": {
        "self": {
          "href": "https://acc.api.data.amsterdam.nl/signals/v1/private/users/6"
        }
      },
      "_display": "c.coopmans@amsterdam.nl",
      "id": 6,
      "username": "c.coopmans@amsterdam.nl",
      "is_active": true,
      "roles": [],
      "profile": {
        "note": null,
        "departments": [],
        "created_at": "2019-10-24T10:25:48.840906+02:00",
        "updated_at": "2019-10-24T10:25:48.840962+02:00"
      }
    },
    {
      "_links": {
        "self": {
          "href": "https://acc.api.data.amsterdam.nl/signals/v1/private/users/99"
        }
      },
      "_display": "c.pinas@amsterdam.nl",
      "id": 99,
      "username": "c.pinas@amsterdam.nl",
      "is_active": true,
      "roles": [
        "Regievoerder"
      ],
      "profile": {
        "note": null,
        "departments": [],
        "created_at": "2019-10-24T10:25:48.886168+02:00",
        "updated_at": "2019-10-24T10:25:48.886182+02:00"
      }
    },
    {
      "_links": {
        "self": {
          "href": "https://acc.api.data.amsterdam.nl/signals/v1/private/users/134"
        }
      },
      "_display": "c.wyse@amsterdam.nl",
      "id": 134,
      "username": "c.wyse@amsterdam.nl",
      "is_active": true,
      "roles": [
        "Monitor"
      ],
      "profile": {
        "note": null,
        "departments": [
          "Actie Service Centrum"
        ],
        "created_at": "2019-12-16T15:07:38.618202+01:00",
        "updated_at": "2019-12-16T15:08:16.907004+01:00"
      }
    },
    {
      "_links": {
        "self": {
          "href": "https://acc.api.data.amsterdam.nl/signals/v1/private/users/29"
        }
      },
      "_display": "d.nonkes@amsterdam.nl",
      "id": 29,
      "username": "d.nonkes@amsterdam.nl",
      "is_active": true,
      "roles": [
        "Behandelaar",
        "Coördinator"
      ],
      "profile": {
        "note": null,
        "departments": [],
        "created_at": "2019-10-24T10:25:48.869423+02:00",
        "updated_at": "2019-10-24T10:25:48.869437+02:00"
      }
    },
    {
      "_links": {
        "self": {
          "href": "https://acc.api.data.amsterdam.nl/signals/v1/private/users/45"
        }
      },
      "_display": "d.van.buiten@amsterdam.nl",
      "id": 45,
      "username": "d.van.buiten@amsterdam.nl",
      "is_active": true,
      "roles": [
        "Behandelaar"
      ],
      "profile": {
        "note": null,
        "departments": [
          "Actie Service Centrum"
        ],
        "created_at": "2019-10-24T10:25:48.873796+02:00",
        "updated_at": "2019-11-25T13:58:45.543722+01:00"
      }
    },
    {
      "_links": {
        "self": {
          "href": "https://acc.api.data.amsterdam.nl/signals/v1/private/users/46"
        }
      },
      "_display": "david.vanbuiten@elements.nl",
      "id": 46,
      "username": "david.vanbuiten@elements.nl",
      "is_active": true,
      "roles": [
        "Regievoerder+"
      ],
      "profile": {
        "note": "",
        "departments": [
          "Actie Service Centrum"
        ],
        "created_at": "2019-10-24T10:25:48.898336+02:00",
        "updated_at": "2020-03-04T12:06:22.429159+01:00"
      }
    },
    {
      "_links": {
        "self": {
          "href": "https://acc.api.data.amsterdam.nl/signals/v1/private/users/92"
        }
      },
      "_display": "digitalechecklisten@amsterdam.nl",
      "id": 92,
      "username": "digitalechecklisten@amsterdam.nl",
      "is_active": true,
      "roles": [
        "Behandelaar"
      ],
      "profile": {
        "note": null,
        "departments": [],
        "created_at": "2019-10-24T10:25:48.881789+02:00",
        "updated_at": "2019-10-24T10:25:48.881810+02:00"
      }
    },
    {
      "_links": {
        "self": {
          "href": "https://acc.api.data.amsterdam.nl/signals/v1/private/users/136"
        }
      },
      "_display": "DWH_IVS@amsterdam.nl",
      "id": 136,
      "username": "DWH_IVS@amsterdam.nl",
      "is_active": true,
      "roles": [
        "Extern Systeem"
      ],
      "profile": {
        "note": null,
        "departments": [],
        "created_at": "2019-12-23T12:27:39.173943+01:00",
        "updated_at": "2019-12-23T12:27:39.173974+01:00"
      }
    },
    {
      "_links": {
        "self": {
          "href": "https://acc.api.data.amsterdam.nl/signals/v1/private/users/53"
        }
      },
      "_display": "e.diepgrond@amsterdam.nl",
      "id": 53,
      "username": "e.diepgrond@amsterdam.nl",
      "is_active": true,
      "roles": [],
      "profile": {
        "note": "",
        "departments": [],
        "created_at": "2019-10-24T10:25:48.884904+02:00",
        "updated_at": "2020-02-19T15:25:53.644642+01:00"
      }
    },
    {
      "_links": {
        "self": {
          "href": "https://acc.api.data.amsterdam.nl/signals/v1/private/users/31"
        }
      },
      "_display": "e.jager@amsterdam.nl",
      "id": 31,
      "username": "e.jager@amsterdam.nl",
      "is_active": true,
      "roles": [],
      "profile": {
        "note": null,
        "departments": [],
        "created_at": "2019-10-24T10:25:48.867573+02:00",
        "updated_at": "2019-10-24T10:25:48.867587+02:00"
      }
    },
    {
      "_links": {
        "self": {
          "href": "https://acc.api.data.amsterdam.nl/signals/v1/private/users/96"
        }
      },
      "_display": "g.schultz@amsterdam.nl",
      "id": 96,
      "username": "g.schultz@amsterdam.nl",
      "is_active": true,
      "roles": [
        "Regievoerder"
      ],
      "profile": {
        "note": null,
        "departments": [],
        "created_at": "2019-10-24T10:25:48.895188+02:00",
        "updated_at": "2019-10-24T10:25:48.895202+02:00"
      }
    },
    {
      "_links": {
        "self": {
          "href": "https://acc.api.data.amsterdam.nl/signals/v1/private/users/104"
        }
      },
      "_display": "g.vardar@amsterdam.nl",
      "id": 104,
      "username": "g.vardar@amsterdam.nl",
      "is_active": true,
      "roles": [
        "Regievoerder"
      ],
      "profile": {
        "note": null,
        "departments": [],
        "created_at": "2019-10-24T10:25:48.897721+02:00",
        "updated_at": "2019-10-24T10:25:48.897741+02:00"
      }
    },
    {
      "_links": {
        "self": {
          "href": "https://acc.api.data.amsterdam.nl/signals/v1/private/users/37"
        }
      },
      "_display": "h.oldenbeuving@amsterdam.nl",
      "id": 37,
      "username": "h.oldenbeuving@amsterdam.nl",
      "is_active": true,
      "roles": [
        "Monitor",
        "Behandelaar",
        "Coördinator",
        "Regievoerder"
      ],
      "profile": {
        "note": "test notitie 5",
        "departments": [],
        "created_at": "2019-10-24T10:25:48.865605+02:00",
        "updated_at": "2020-03-04T09:18:24.636106+01:00"
      }
    },
    {
      "_links": {
        "self": {
          "href": "https://acc.api.data.amsterdam.nl/signals/v1/private/users/8"
        }
      },
      "_display": "i.freeke@amsterdam.nl",
      "id": 8,
      "username": "i.freeke@amsterdam.nl",
      "is_active": true,
      "roles": [],
      "profile": {
        "note": null,
        "departments": [],
        "created_at": "2019-10-24T10:25:48.842594+02:00",
        "updated_at": "2019-10-24T10:25:48.842634+02:00"
      }
    },
    {
      "_links": {
        "self": {
          "href": "https://acc.api.data.amsterdam.nl/signals/v1/private/users/102"
        }
      },
      "_display": "i.steluce@amsterdam.nl",
      "id": 102,
      "username": "i.steluce@amsterdam.nl",
      "is_active": true,
      "roles": [
        "Regievoerder"
      ],
      "profile": {
        "note": null,
        "departments": [],
        "created_at": "2019-10-24T10:25:48.896386+02:00",
        "updated_at": "2019-10-24T10:25:48.896400+02:00"
      }
    },
    {
      "_links": {
        "self": {
          "href": "https://acc.api.data.amsterdam.nl/signals/v1/private/users/117"
        }
      },
      "_display": "invalideparkeersensoren@amsterdam.nl",
      "id": 117,
      "username": "invalideparkeersensoren@amsterdam.nl",
      "is_active": true,
      "roles": [
        "Extern Systeem"
      ],
      "profile": {
        "note": null,
        "departments": [
          "V&OR"
        ],
        "created_at": "2019-12-02T15:09:02.380628+01:00",
        "updated_at": "2019-12-02T15:09:56.227770+01:00"
      }
    },
    {
      "_links": {
        "self": {
          "href": "https://acc.api.data.amsterdam.nl/signals/v1/private/users/47"
        }
      },
      "_display": "j.van.deursen@amsterdam.nl",
      "id": 47,
      "username": "j.van.deursen@amsterdam.nl",
      "is_active": true,
      "roles": [
        "Monitor"
      ],
      "profile": {
        "note": null,
        "departments": [],
        "created_at": "2019-10-24T10:25:48.874301+02:00",
        "updated_at": "2019-10-24T10:25:48.874315+02:00"
      }
    },
    {
      "_links": {
        "self": {
          "href": "https://acc.api.data.amsterdam.nl/signals/v1/private/users/9"
        }
      },
      "_display": "jasper.g.swart@gmail.com",
      "id": 9,
      "username": "jasper.g.swart@gmail.com",
      "is_active": true,
      "roles": [],
      "profile": {
        "note": null,
        "departments": [],
        "created_at": "2019-10-24T10:25:48.855057+02:00",
        "updated_at": "2020-02-12T13:39:30.911771+01:00"
      }
    }
  ]
}
